%YAML 1.1
%TAG !u! tag:unity3d.com,2011:
--- !u!74 &7400000
AnimationClip:
  m_ObjectHideFlags: 0
  m_CorrespondingSourceObject: {fileID: 0}
  m_PrefabInstance: {fileID: 0}
  m_PrefabAsset: {fileID: 0}
  m_Name: PlayerTurnRight
  serializedVersion: 6
  m_Legacy: 0
  m_Compressed: 0
  m_UseHighQualityCurve: 1
  m_RotationCurves: []
  m_CompressedRotationCurves: []
  m_EulerCurves: []
  m_PositionCurves: []
  m_ScaleCurves: []
  m_FloatCurves: []
  m_PPtrCurves:
  - curve:
    - time: 0
      value: {fileID: 21300000, guid: 1d5981962683d455ba1857f592a65b02, type: 3}
    - time: 0.033333335
      value: {fileID: 21300000, guid: b3ab8b6c15fbb4bf5bdca33e151a4d03, type: 3}
    - time: 0.06666667
      value: {fileID: 21300000, guid: c7a5b907897124d63a1b3d00415f44f1, type: 3}
    - time: 0.1
      value: {fileID: 21300000, guid: 642f2ccf679e74095a9a13fa5e839005, type: 3}
    - time: 0.13333334
      value: {fileID: 21300000, guid: c17202ebaabb9488a968b16bdf23eeae, type: 3}
    - time: 0.16666667
      value: {fileID: 21300000, guid: 783c36011820c44b99ac90932d536fd4, type: 3}
    - time: 0.2
      value: {fileID: 21300000, guid: 859bb78ca669f4810a60697db925b402, type: 3}
    - time: 0.23333333
      value: {fileID: 21300000, guid: a5dba836ea2bb43149e8e73f5dbc6978, type: 3}
    - time: 0.26666668
      value: {fileID: 21300000, guid: c83085279e66140008ba22ca901f4c4b, type: 3}
    attribute: m_Sprite
    path: 
    classID: 212
    script: {fileID: 0}
  m_SampleRate: 30
  m_WrapMode: 0
  m_Bounds:
    m_Center: {x: 0, y: 0, z: 0}
    m_Extent: {x: 0, y: 0, z: 0}
  m_ClipBindingConstant:
    genericBindings:
    - serializedVersion: 2
      path: 0
      attribute: 0
      script: {fileID: 0}
      typeID: 212
      customType: 23
      isPPtrCurve: 1
    pptrCurveMapping:
    - {fileID: 21300000, guid: 1d5981962683d455ba1857f592a65b02, type: 3}
    - {fileID: 21300000, guid: b3ab8b6c15fbb4bf5bdca33e151a4d03, type: 3}
    - {fileID: 21300000, guid: c7a5b907897124d63a1b3d00415f44f1, type: 3}
    - {fileID: 21300000, guid: 642f2ccf679e74095a9a13fa5e839005, type: 3}
    - {fileID: 21300000, guid: c17202ebaabb9488a968b16bdf23eeae, type: 3}
    - {fileID: 21300000, guid: 783c36011820c44b99ac90932d536fd4, type: 3}
    - {fileID: 21300000, guid: 859bb78ca669f4810a60697db925b402, type: 3}
    - {fileID: 21300000, guid: a5dba836ea2bb43149e8e73f5dbc6978, type: 3}
    - {fileID: 21300000, guid: c83085279e66140008ba22ca901f4c4b, type: 3}
  m_AnimationClipSettings:
    serializedVersion: 2
    m_AdditiveReferencePoseClip: {fileID: 0}
    m_AdditiveReferencePoseTime: 0
    m_StartTime: 0
    m_StopTime: 0.3
    m_OrientationOffsetY: 0
    m_Level: 0
    m_CycleOffset: 0
    m_HasAdditiveReferencePose: 0
    m_LoopTime: 0
    m_LoopBlend: 0
    m_LoopBlendOrientation: 0
    m_LoopBlendPositionY: 0
    m_LoopBlendPositionXZ: 0
    m_KeepOriginalOrientation: 0
    m_KeepOriginalPositionY: 1
    m_KeepOriginalPositionXZ: 0
    m_HeightFromFeet: 0
    m_Mirror: 0
  m_EditorCurves: []
  m_EulerEditorCurves: []
  m_HasGenericRootTransform: 0
  m_HasMotionFloatCurves: 0
  m_Events: []
